Capítulo 2 Processamento de dados | Estatística nas Ciências Ambientais
…
O comando acima importa para o R os dados da tabela denominada Reservatorios_Parana_parcial.csv e cria um objeto denominado res contendo estas informações. A partir de agora, qualquer modificação que fizermos no objeto res, não irá alterar o arquivo .csv original.

Vamos entender alguns argumentos do comando read_delim:

delim = ',': utilizado para dizer ao R que cada coluna na base de dados está separada das demais por uma vírgula. Se no arquivo .csv as colunas estivessem seperadas por ponto-e-vígula, deveríamos escrever delim = ';'.

decimal_mark = '.': informa ao R que o símbolo ponto é utilizado como um separador decimal. Se no arquivo .csv os números decimais utilizassem a vírgula, o argumento deveria ser decimal_mark = ','.

encoding = 'latin1': indica a forma de codificação. A necessidade de seu uso depende do sistema operacional de seu computador. Outras formas de codificação além de são por exemplo UTF-8, ISO-8859-1. Geralmente, o argumento é necessário quando existem caracteres especiais na base de dados como acentos e cedilhas.

Podemos visualizar a base de dados digitando:

res

## # A tibble: 31 × 11
##    Reservatorio Bacia  Fechamento   Area Trofia    pH Condutividade Alcalinidade
##    <chr>        <chr>       <dbl>  <dbl> <chr>  <dbl>         <dbl>        <dbl>
##  1 Cavernoso    Iguacu       1965   2.9  Oligo…   7.4          33.1        140. 
##  2 Curucaca     Iguacu       1982   2    Oligo…   7            32.4        126. 
##  3 Foz do Areia Iguacu       1980 139    Oligo…   7.3          35.5         97  
##  4 Irai         Iguacu       2000  15    Eutró…   6.9          50.2          3.3
##  5 JMF          Iguacu       1970   0.45 Mesot…   7.3          40.2          3.7
##  6 Jordao       Iguacu       1996   3.4  Oligo…   7.1          23.7        153. 
##  7 Passauna     Iguacu       1978  14    Oligo…   8.8         126.         526  
##  8 Piraquara    Iguacu       1979   3.3  Oligo…   7.1          22.8         50.7
##  9 Salto Caxias Iguacu       1998 124    Oligo…   7.3          39.6        106  
## 10 Salto do Vau Iguacu       1959   2.9  Oligo…   6.5          23.2        279  
## # … with 21 more rows, and 3 more variables: P.total <dbl>, Riqueza <dbl>,
## #   CPUE <dbl>
…
A tabela contém uma coluna denominada Fechamento, que mostra o ano em que o reservatório foi formado. Vamos visualizar em ordem crescente do ano de formação, do mais antigo para o mais novo:

res %>% 
  arrange(Fechamento) %>% 
  View()

O reservatório mais antigo é de 1909 e o mais novo de 2000. Três reservatórios estão ao final da tabela pois para estes a variável Fechamento consta como faltante.

Ao rodar esta função não alteramos o objeto res, apenas o visualizamos em uma ordem diferente.

Digite o nome do objeto e verá que a ordem permanece inalterada.

res

## # A tibble: 31 × 11
##    Reservatorio Bacia  Fechamento   Area Trofia    pH Condutividade Alcalinidade
##    <chr>        <chr>       <dbl>  <dbl> <chr>  <dbl>         <dbl>        <dbl>
##  1 Cavernoso    Iguacu       1965   2.9  Oligo…   7.4          33.1        140. 
##  2 Curucaca     Iguacu       1982   2    Oligo…   7            32.4        126. 
##  3 Foz do Areia Iguacu       1980 139    Oligo…   7.3          35.5         97  
##  4 Irai         Iguacu       2000  15    Eutró…   6.9          50.2          3.3
##  5 JMF          Iguacu       1970   0.45 Mesot…   7.3          40.2          3.7
##  6 Jordao       Iguacu       1996   3.4  Oligo…   7.1          23.7        153. 
##  7 Passauna     Iguacu       1978  14    Oligo…   8.8         126.         526  
##  8 Piraquara    Iguacu       1979   3.3  Oligo…   7.1          22.8         50.7
##  9 Salto Caxias Iguacu       1998 124    Oligo…   7.3          39.6        106  
## 10 Salto do Vau Iguacu       1959   2.9  Oligo…   6.5          23.2        279  
## # … with 21 more rows, and 3 more variables: P.total <dbl>, Riqueza <dbl>,
## #   CPUE <dbl>
…
